<?xml version="1.0" encoding="UTF-8" standalone="no"?>
<!-- Created with Inkscape (http://www.inkscape.org/) -->

<svg
   xmlns:dc="http://purl.org/dc/elements/1.1/"
   xmlns:cc="http://creativecommons.org/ns#"
   xmlns:rdf="http://www.w3.org/1999/02/22-rdf-syntax-ns#"
   xmlns:svg="http://www.w3.org/2000/svg"
   xmlns="http://www.w3.org/2000/svg"
   xmlns:sodipodi="http://sodipodi.sourceforge.net/DTD/sodipodi-0.dtd"
   xmlns:inkscape="http://www.inkscape.org/namespaces/inkscape"
   width="500"
   height="500"
   viewBox="0 0 132.29166 132.29167"
   version="1.1"
   id="svg8"
   inkscape:version="0.92.1 r15371"
   sodipodi:docname="2048_logo.svg"
   inkscape:export-filename="/home/user/Documents/Project/Games/2048/Img/2048_logo.png"
   inkscape:export-xdpi="96"
   inkscape:export-ydpi="96">
  <defs
     id="defs2" />
  <sodipodi:namedview
     id="base"
     pagecolor="#6c6c6c"
     bordercolor="#ffffff"
     borderopacity="1"
     inkscape:pageopacity="0"
     inkscape:pageshadow="2"
     inkscape:zoom="0.98994949"
     inkscape:cx="253.28748"
     inkscape:cy="332.83269"
     inkscape:document-units="mm"
     inkscape:current-layer="layer1"
     showgrid="false"
     units="px"
     inkscape:showpageshadow="false"
     inkscape:window-width="1276"
     inkscape:window-height="1549"
     inkscape:window-x="1282"
     inkscape:window-y="24"
     inkscape:window-maximized="0"
     inkscape:measure-start="0,0"
     inkscape:measure-end="0,0" />
  <metadata
     id="metadata5">
    <rdf:RDF>
      <cc:Work
         rdf:about="">
        <dc:format>image/svg+xml</dc:format>
        <dc:type
           rdf:resource="http://purl.org/dc/dcmitype/StillImage" />
        <dc:title></dc:title>
      </cc:Work>
    </rdf:RDF>
  </metadata>
  <g
     inkscape:label="Layer 1"
     inkscape:groupmode="layer"
     id="layer1"
     transform="translate(0,-164.70832)">
    <rect
       style="opacity:1;fill:#f4e3d7;fill-opacity:1;stroke:none;stroke-width:3.19566464;stroke-miterlimit:4;stroke-dasharray:none;stroke-opacity:1"
       id="rect4485"
       width="132.29167"
       height="132.29167"
       x="-2.5431316e-06"
       y="164.70831" />
    <rect
       style="opacity:1;fill:#ffffff;fill-opacity:1;stroke:none;stroke-width:3.00129986;stroke-miterlimit:4;stroke-dasharray:none;stroke-opacity:1"
       id="rect4487"
       width="132.29167"
       height="10.958051"
       x="0"
       y="204.37044" />
    <rect
       style="opacity:1;fill:#ffffff;fill-opacity:1;stroke:none;stroke-width:3.00129986;stroke-miterlimit:4;stroke-dasharray:none;stroke-opacity:1"
       id="rect4487-3"
       width="132.29167"
       height="10.958051"
       x="-7.1054274e-15"
       y="250.40732" />
    <rect
       style="opacity:1;fill:#ffffff;fill-opacity:1;stroke:none;stroke-width:2.51285148;stroke-miterlimit:4;stroke-dasharray:none;stroke-opacity:1"
       id="rect4487-3-7"
       width="92.735786"
       height="10.958051"
       x="204.39447"
       y="-47.4296"
       transform="rotate(90)" />
    <rect
       style="opacity:1;fill:#ffffff;fill-opacity:1;stroke:none;stroke-width:2.51285148;stroke-miterlimit:4;stroke-dasharray:none;stroke-opacity:1"
       id="rect4487-3-7-5"
       width="92.735786"
       height="10.958051"
       x="204.39447"
       y="-96.112976"
       transform="rotate(90)" />
    <rect
       style="opacity:1;fill:#c83737;fill-opacity:1;stroke:none;stroke-width:3.2749393;stroke-miterlimit:4;stroke-dasharray:none;stroke-opacity:1"
       id="rect4549"
       width="36.07465"
       height="35.459068"
       x="96.217026"
       y="214.94824" />
    <rect
       style="opacity:1;fill:#c83737;fill-opacity:1;stroke:none;stroke-width:3.38667989;stroke-miterlimit:4;stroke-dasharray:none;stroke-opacity:1"
       id="rect4549-3"
       width="37.725323"
       height="36.260876"
       x="47.4296"
       y="260.86935" />
    <rect
       style="opacity:1;fill:#aade87;fill-opacity:1;stroke:none;stroke-width:3.29911351;stroke-miterlimit:4;stroke-dasharray:none;stroke-opacity:1"
       id="rect4549-6"
       width="36.609188"
       height="35.459068"
       x="-7.1054274e-15"
       y="215.32849" />
    <rect
       style="opacity:1;fill:#5fbcd3;fill-opacity:1;stroke:none;stroke-width:3.29911351;stroke-miterlimit:4;stroke-dasharray:none;stroke-opacity:1"
       id="rect4549-6-2"
       width="36.609188"
       height="35.459068"
       x="95.68248"
       y="261.36536" />
    <flowRoot
       xml:space="preserve"
       id="flowRoot4611"
       style="font-style:normal;font-weight:normal;font-size:40px;line-height:1.25;font-family:sans-serif;text-align:center;letter-spacing:0px;word-spacing:0px;text-anchor:middle;fill:#000000;fill-opacity:1;stroke:none"
       transform="matrix(0.26458333,0,0,0.26458333,-0.52916667,166.29583)"><flowRegion
         id="flowRegion4613"
         style="text-align:center;text-anchor:middle"><rect
           id="rect4615"
           width="138.36543"
           height="134.01855"
           x="-2.6855159e-14"
           y="191.32033"
           style="text-align:center;text-anchor:middle" /></flowRegion><flowPara
         id="flowPara4617"
         style="font-style:normal;font-variant:normal;font-weight:bold;font-stretch:normal;font-size:106.66667175px;font-family:sans-serif;-inkscape-font-specification:'sans-serif Bold'">2</flowPara></flowRoot>    <flowRoot
       xml:space="preserve"
       id="flowRoot4611-9"
       style="font-style:normal;font-weight:normal;font-size:40px;line-height:1.25;font-family:sans-serif;text-align:center;letter-spacing:0px;word-spacing:0px;text-anchor:middle;fill:#000000;fill-opacity:1;stroke:none"
       transform="matrix(0.26458333,0,0,0.26458333,96.457413,166.94173)"><flowRegion
         id="flowRegion4613-1"
         style="text-align:center;text-anchor:middle"><rect
           id="rect4615-2"
           width="138.36543"
           height="134.01855"
           x="-2.6855159e-14"
           y="191.32033"
           style="text-align:center;text-anchor:middle" /></flowRegion><flowPara
         id="flowPara4617-7"
         style="font-style:normal;font-variant:normal;font-weight:bold;font-stretch:normal;font-size:106.66667175px;font-family:sans-serif;-inkscape-font-specification:'sans-serif Bold';fill:#ffffff">4</flowPara></flowRoot>    <flowRoot
       xml:space="preserve"
       id="flowRoot4611-9-0"
       style="font-style:normal;font-weight:normal;font-size:40px;line-height:1.25;font-family:sans-serif;text-align:center;letter-spacing:0px;word-spacing:0px;text-anchor:middle;fill:#000000;fill-opacity:1;stroke:none"
       transform="matrix(0.26458333,0,0,0.26458333,47.450626,213.52249)"><flowRegion
         id="flowRegion4613-1-9"
         style="text-align:center;text-anchor:middle"><rect
           id="rect4615-2-3"
           width="138.36543"
           height="134.01855"
           x="-2.6855159e-14"
           y="191.32033"
           style="text-align:center;text-anchor:middle" /></flowRegion><flowPara
         id="flowPara4617-7-6"
         style="font-style:normal;font-variant:normal;font-weight:bold;font-stretch:normal;font-size:106.66667175px;font-family:sans-serif;-inkscape-font-specification:'sans-serif Bold';fill:#ffffff">4</flowPara></flowRoot>    <flowRoot
       xml:space="preserve"
       id="flowRoot4611-9-06"
       style="font-style:normal;font-weight:normal;font-size:40px;line-height:1.25;font-family:sans-serif;text-align:center;letter-spacing:0px;word-spacing:0px;text-anchor:middle;fill:#000000;fill-opacity:1;stroke:none"
       transform="matrix(0.26458333,0,0,0.26458333,77.567462,213.7844)"><flowRegion
         id="flowRegion4613-1-2"
         style="text-align:center;text-anchor:middle"><rect
           id="rect4615-2-6"
           width="270.6954"
           height="283.52112"
           x="-2.6855159e-14"
           y="191.32033"
           style="text-align:center;text-anchor:middle" /></flowRegion><flowPara
         id="flowPara4617-7-1"
         style="font-style:normal;font-variant:normal;font-weight:bold;font-stretch:normal;font-size:96px;font-family:sans-serif;-inkscape-font-specification:'sans-serif Bold';fill:#000000">16</flowPara></flowRoot>    <rect
       style="opacity:0.31000001;fill:#000000;fill-opacity:1;stroke:none;stroke-width:2.16499996;stroke-miterlimit:4;stroke-dasharray:none;stroke-opacity:1"
       id="rect4710"
       width="132.29167"
       height="39.662125"
       x="-2.5431314e-06"
       y="164.70831" />
    <flowRoot
       xml:space="preserve"
       id="flowRoot4712"
       style="font-style:normal;font-weight:normal;font-size:40px;line-height:1.25;font-family:sans-serif;letter-spacing:0px;word-spacing:0px;fill:#aade87;fill-opacity:1;stroke:none"
       transform="matrix(0.3600573,0,0,0.3600573,3.3468292,157.58281)"><flowRegion
         id="flowRegion4714"
         style="fill:#aade87;fill-opacity:1"><rect
           id="rect4716"
           width="523.23352"
           height="195.36096"
           x="-9.6118347e-06"
           y="-2.6500984e-05"
           style="fill:#aade87;fill-opacity:1" /></flowRegion><flowPara
         id="flowPara4718"
         style="font-style:normal;font-variant:normal;font-weight:bold;font-stretch:normal;font-size:133.33332825px;font-family:'GFS Artemisia';-inkscape-font-specification:'GFS Artemisia Bold';fill:#aade87;fill-opacity:1">2<flowSpan
   style="fill:#ffffff;fill-opacity:1"
   id="flowSpan4720">0</flowSpan><flowSpan
   style="fill:#c83737"
   id="flowSpan4730">4</flowSpan><flowSpan
   id="flowSpan4734"
   style="fill:#0088aa">8</flowSpan></flowPara></flowRoot>  </g>
</svg>
